[
  {
    "pk": 1,
    "model": "auth.user",
    "fields": {
      "username": "superuser",
      "first_name": "",
      "last_name": "",
      "is_active": true,
      "is_superuser": true,
      "is_staff": true,
      "last_login": "2012-07-01 18:24:14",
      "groups": [],
      "user_permissions": [],
      "password": "pbkdf2_sha256$10000$tmjU88xeh6hD$H50LrtGaivP0HzuoK/YZjFIdYwmvDHSipJSuIn+78aM=",
      "email": "",
      "date_joined": "2012-07-01 18:24:14"
    }
  },
  {
    "pk": 2,
    "model": "auth.user",
    "fields": {
      "username": "user2@example.com",
      "first_name": "",
      "last_name": "",
      "is_active": true,
      "is_superuser": false,
      "is_staff": false,
      "last_login": "2012-07-01 18:24:14",
      "groups": [
        4
      ],
      "user_permissions": [],
      "password": "pbkdf2_sha256$10000$tmjU88xeh6hD$H50LrtGaivP0HzuoK/YZjFIdYwmvDHSipJSuIn+78aM=",
      "email": "user2@example.com",
      "date_joined": "2012-07-01 18:24:14"
    }
  },
  {
    "pk": 3,
    "model": "auth.user",
    "fields": {
      "username": "user3@example.com",
      "first_name": "",
      "last_name": "",
      "is_active": true,
      "is_superuser": false,
      "is_staff": false,
      "last_login": "2012-07-01 18:24:14",
      "groups": [
        2,
        5
      ],
      "user_permissions": [],
      "password": "pbkdf2_sha256$10000$tmjU88xeh6hD$H50LrtGaivP0HzuoK/YZjFIdYwmvDHSipJSuIn+78aM=",
      "email": "user3@example.com",
      "date_joined": "2012-07-01 18:24:14"
    }
  },
  {
    "pk": 4,
    "model": "auth.user",
    "fields": {
      "username": "user4@example.com",
      "first_name": "",
      "last_name": "",
      "is_active": true,
      "is_superuser": false,
      "is_staff": false,
      "last_login": "2012-07-01 18:24:14",
      "groups": [
        1,
        6
      ],
      "user_permissions": [],
      "password": "pbkdf2_sha256$10000$tmjU88xeh6hD$H50LrtGaivP0HzuoK/YZjFIdYwmvDHSipJSuIn+78aM=",
      "email": "user4@example.com",
      "date_joined": "2012-07-01 18:24:14"
    }
  },
  {
    "pk": 5,
    "model": "auth.user",
    "fields": {
      "username": "user5@example.com",
      "first_name": "",
      "last_name": "",
      "is_active": true,
      "is_superuser": false,
      "is_staff": false,
      "last_login": "2012-07-01 18:24:14",
      "groups": [
        3,
        7
      ],
      "user_permissions": [],
      "password": "pbkdf2_sha256$10000$tmjU88xeh6hD$H50LrtGaivP0HzuoK/YZjFIdYwmvDHSipJSuIn+78aM=",
      "email": "user5@example.com",
      "date_joined": "2012-07-01 18:24:14"
    }
  },
  {
    "pk": 6,
    "model": "auth.user",
    "fields": {
      "username": "user6@example.com",
      "first_name": "",
      "last_name": "",
      "is_active": true,
      "is_superuser": false,
      "is_staff": false,
      "last_login": "2012-07-01 18:24:14",
      "groups": [
        2,
        8
      ],
      "user_permissions": [],
      "password": "pbkdf2_sha256$10000$tmjU88xeh6hD$H50LrtGaivP0HzuoK/YZjFIdYwmvDHSipJSuIn+78aM=",
      "email": "user6@example.com",
      "date_joined": "2012-07-01 18:24:14"
    }
  },
  {
    "pk": 7,
    "model": "auth.user",
    "fields": {
      "username": "user7@example.com",
      "first_name": "",
      "last_name": "",
      "is_active": true,
      "is_superuser": false,
      "is_staff": false,
      "last_login": "2012-07-01 18:24:14",
      "groups": [
        1,
        9
      ],
      "user_permissions": [],
      "password": "pbkdf2_sha256$10000$tmjU88xeh6hD$H50LrtGaivP0HzuoK/YZjFIdYwmvDHSipJSuIn+78aM=",
      "email": "user7@example.com",
      "date_joined": "2012-07-01 18:24:14"
    }
  },
  {
    "pk": 8,
    "model": "auth.user",
    "fields": {
      "username": "user8@example.com",
      "first_name": "",
      "last_name": "",
      "is_active": true,
      "is_superuser": false,
      "is_staff": false,
      "last_login": "2012-07-01 18:24:14",
      "groups": [
        10
      ],
      "user_permissions": [],
      "password": "pbkdf2_sha256$10000$tmjU88xeh6hD$H50LrtGaivP0HzuoK/YZjFIdYwmvDHSipJSuIn+78aM=",
      "email": "user8@example.com",
      "date_joined": "2012-07-01 18:24:14"
    }
  },
  {
    "pk": 1,
    "model": "auth.group",
    "fields": {
      "name": "price_priority",
      "permissions": []
    }
  },
  {
    "pk": 2,
    "model": "auth.group",
    "fields": {
      "name": "time_priority",
      "permissions": []
    }
  },
  {
    "pk": 3,
    "model": "auth.group",
    "fields": {
      "name": "control",
      "permissions": []
    }
  },
  {
    "pk": 4,
    "model": "auth.group",
    "fields": {
      "name": "2",
      "permissions": []
    }
  },
  {
    "pk": 5,
    "model": "auth.group",
    "fields": {
      "name": "3",
      "permissions": []
    }
  },
  {
    "pk": 6,
    "model": "auth.group",
    "fields": {
      "name": "4",
      "permissions": []
    }
  },
  {
    "pk": 7,
    "model": "auth.group",
    "fields": {
      "name": "5",
      "permissions": []
    }
  },
  {
    "pk": 8,
    "model": "auth.group",
    "fields": {
      "name": "6",
      "permissions": []
    }
  },
  {
    "pk": 9,
    "model": "auth.group",
    "fields": {
      "name": "7",
      "permissions": []
    }
  },
  {
    "pk": 10,
    "model": "auth.group",
    "fields": {
      "name": "8",
      "permissions": []
    }
  }
]